166343 171477 334
238338 241767 368
167570 174046 347
438401 444163 400
114890 119325 349
220445 224118 355
56722 63496 335
301732 302774 340
240412 243169 368
191565 196121 360
34450 41143 324
50981 53498 340
302946 304845 340
367100 373764 392
96510 98489 297
244710 251104 350
426409 426600 250
146974 148040 295
381141 386533 374
379207 384372 379
221831 224696 337
192040 195610 360
93018 100070 328
133483 140690 344
62578 70575 330
383083 388866 348
382485 391928 436
459429 462013 444
392048 398700 405
118790 127770 336
67792 70583 312
339738 341020 366
1844 4270 238
337686 337712 229
480117 484282 413
129149 131337 344
217387 219474 337
24687 28890 308
434304 443835 400
400069 400406 317
240530 249315 368
169597 174004 347
62241 71929 330
136207 145692 375
425092 431457 374
248403 256165 363
483995 491632 382
231428 232939 337
297856 300438 371
267642 272883 407
4 733984 509
422390 818284 509
10867 588538 470
252353 988923 525
357952 641275 509
184143 851268 525
435841 869969 525
256897 586236 470
23591 949725 525
47409 897474 525
99359 977560 525
383146 761007 509
250765 786444 509
234372 850907 525
5843 980848 525
399640 549757 470
253125 722992 509
300441 619915 470
246314 748057 509
337873 995352 525
284879 965957 525
123445 928984 525
17862 950991 525
8813 838598 525
210155 955132 525
415932 745701 509
350554 672852 509
195179 961007 525
259768 564409 470
71177 953650 525
75536 877411 525
171509 628331 509
453531 551107 470
90260 880181 525
283205 924628 525
246144 873799 525
165822 628691 509
234873 501954 449
434442 673889 509
363116 626762 509
387957 539573 470
224089 532434 470
46230 917685 525
286639 960772 525
299564 834753 509
413087 940727 525
92506 693669 509
329588 527957 470
171759 766161 509
114640 800657 509
101361 782275 509
418431 611686 470
348136 766474 509
154781 725555 509
18018 894593 525
461199 867352 525
378720 809985 509
36212 800293 509
448449 989347 525
481943 560953 470
209493 829307 509
150290 873849 525
233974 877756 525
215029 717681 509
72646 872510 525
382719 735179 509
199417 952834 525
309709 603753 470
38558 702996 509
488554 730804 509
152186 860654 525
448695 944621 525
78733 565126 470
111100 510972 449
234678 626175 470
382125 788206 509
166883 510429 449
124343 692747 509
49714 853128 525
27884 597129 470
18576 965450 525
7345 724610 509
223789 662410 509
390229 931587 525
491228 604460 470
448320 546849 470
360726 576170 470
503 807386 509
342915 594854 470
267543 889558 525
245313 785267 509
294095 985040 525
225847 897972 525
421819 853985 525
469984 795101 509
486220 801181 509
278488 691844 509
225928 919176 525
360367 680456 509
171137 668088 509
137399 669441 509
363533 750676 509
223137 558266 470
360059 608772 470
320178 790570 509
331789 927401 525
493085 602368 470
81522 674025 509
74472 777495 509
28482 636736 509
303179 882695 525
367196 623798 470
376501 532531 470
179223 684182 509
196780 993627 525
41827 564978 470
69589 521904 470
309799 811807 509
443933 671588 509
53951 850008 525
151968 655296 509
124638 937184 525
40017 888360 525
94824 684049 509
382685 962987 525
252206 512967 470
345785 522084 470
119202 842238 525
269661 992787 525
295846 517945 470
232546 611895 470
309766 844872 525
305661 644320 509
139253 818310 509
433199 934119 525
141603 606270 470
326902 951621 525
460174 824088 509
320462 660636 509
274321 537144 470
278 984917 525
302826 776020 509
21313 506382 449
217434 988643 525
196422 708252 509
124214 801696 509
84522 610774 470
126398 725610 509
146371 607750 470
460859 890991 525
281741 951592 525
489852 636812 509
313534 852065 525
374950 812288 509
302660 676080 509
86730 916647 525
332026 513442 470
497354 926561 525
152506 887814 525
129151 844492 525
310698 634818 509
274161 866519 525
254162 893723 525
21302 528963 470
452868 949087 525
154124 778968 509
442898 732248 509
441358 727297 509
224114 890006 525
498368 573132 470
299991 560154 470
270021 748187 509
184192 672290 509
174605 748596 509
72019 992209 525
251527 519850 470
382620 782621 509
282819 760813 509
296428 902292 525
199473 860838 525
247523 733756 509
65247 560291 470
453148 684447 509
33872 725264 509
68887 576185 470
435684 943645 525
211054 866153 525
293307 723063 509
415849 666539 509
413258 722187 509
162134 605214 470
314829 912826 525
465716 985296 525
376979 536582 470
32938 546252 470
442137 912618 525
401076 534030 470
198743 509437 449
95959 682404 509
104876 546912 470
477777 541422 470
137023 678061 509
13884 837526 509
280048 644536 509
254082 556696 470
166256 590168 470
233859 748750 509
104568 925406 525
371769 568685 470
326655 568484 470
69711 897218 525
182975 958726 525
490981 624082 470
298487 758864 509
60259 967439 525
68323 548743 470
321208 888107 525
417897 875088 525
115701 980694 525
343378 774628 509
499464 993261 525
68613 821774 509
149865 806692 509
267898 726800 509
62362 511231 449
331859 715946 509
467059 535054 470
324074 927535 525
418716 502558 444
119186 607199 470
265016 873187 525
380173 911485 525
472933 827224 509
373267 710191 509
321642 646838 509
84117 658422 509
364385 980835 525
103679 827813 509
371770 783843 509
169797 588983 470
153982 932922 525
463195 870852 525
427537 856075 525
265823 697427 509
166952 628425 509
174049 860585 525
175755 635388 509
268966 924251 525
72037 541333 470
201455 985950 525
144947 808337 509
953659 394481 525
655293 18024 509
696531 311747 509
863246 459582 525
563161 257103 470
928071 144593 525
618246 407926 470
902038 270718 525
573065 436218 470
590571 378424 470
856776 98287 525
736290 199487 509
947777 5607 525
702686 292357 509
793547 112021 509
810714 234305 509
930304 183319 525
818961 8959 509
768188 390397 509
808596 444986 509
611707 324477 470
661320 267640 509
836953 371771 509
564622 326846 470
894755 418444 525
981115 420316 525
794411 314009 509
893254 237238 525
521650 225410 470
554372 297100 470
785245 296785 509
841267 71798 525
738704 449828 509
814015 330514 509
828512 54908 509
684813 250707 509
521326 12482 470
721969 327182 509
950040 438173 525
776070 60192 509
912712 336819 525
737095 446903 509
943303 172518 525
554406 350697 470
655199 417771 509
766972 450349 509
873887 169996 525
958365 326171 525
509554 296718 449
687195 170667 509
252 506140 449
334 623405 470
196 417729 449
13 905665 525
313 239193 443
84 122579 354
339 402508 443
91 275077 443
421 224321 386
360 106500 354
466 446051 449
411 605833 470
429 620492 470
99 371034 443
259 496547 449
396 378237 443
329 847477 525
383 386034 443
282 322766 443
7 33917 308
106 49059 324
434 995262 525
407 539352 470
169 626617 509
217 165904 383
478 828390 509
193 191125 383
123 13302 276
405 310297 443
224 616375 470
14 720625 509
279 991072 525
459 43964 324
399 447928 449
491 705577 509
169 633125 509
175 662879 509
46 293177 443
200 185523 383
209 334699 443
474 625110 470
359 764083 509
434 755194 509
32 387406 443
99 877914 525
305 358503 443
344 606662 470
439 687820 509
211 154955 375
